## RankNet
## Epochs = 25
## No. of features = 136
## No. of hidden layers = 1
## Layer 1: 10 neurons
1 2 3 4 5 6 7 8 9 10 11 12 13 14 15 16 17 18 19 20 21 22 23 24 25 26 27 28 29 30 31 32 33 34 35 36 37 38 39 40 41 42 43 44 45 46 47 48 49 50 51 52 53 54 55 56 57 58 59 60 61 62 63 64 65 66 67 68 69 70 71 72 73 74 75 76 77 78 79 80 81 82 83 84 85 86 87 88 89 90 91 92 93 94 95 96 97 98 99 100 101 102 103 104 105 106 107 108 109 110 111 112 113 114 115 116 117 118 119 120 121 122 123 124 125 126 127 128 129 130 131 132 133 134 135 136
1
10
0 0 -0.5631465771836835 0.1999916062154034 0.11094327135237426 0.20875799161034672 0.08338622088850252 -0.28970480069882254 -0.3342799396118685 0.09404045985320712 -0.29031761464794814 0.1251385142144402
0 1 0.9518273945728232 -0.9633557360927396 -0.9087736803204882 -1.0055988125182178 -1.1240719398848438 1.021092063746409 0.8966053846546593 -1.0328681687234447 0.9538603803341682 -0.9657302143812337
0 2 1.9299619348086368 -1.614709388608443 -1.58307323807252 -1.967274935699698 -1.8791024687301818 1.6721817501631453 1.5463809627398464 -1.8224042507367362 1.691268373790671 -1.6839565743041516
0 3 1.3201073538971686 -1.1310928877424302 -0.9477557646710758 -1.2689997545537708 -1.3026556965076506 1.0811618479414993 0.9996613907170445 -1.1839405874646214 1.1059765651398625 -1.182556406366375
0 4 -0.6386631263923311 0.09614844063149443 0.034726875192717985 0.11291396877059408 0.1974249335876742 -0.3187225832858093 -0.22242313419202633 0.14308736569352667 -0.34037335758674286 0.10453653961020364
0 5 -0.6403244454530754 0.16046567669682954 0.15072087870157877 0.2299378987870048 0.06941304455364754 -0.474942664839151 -0.22610486777103583 0.06258023187985982 -0.323136573280513 0.15166505933310642
0 6 1.0131451894147456 -0.8433608158603902 -0.9358040474158633 -1.1602673056458264 -0.9945734147603481 0.9545997910222003 0.8424076109559886 -0.9430522283199491 0.9579377069394202 -1.0254968870999024
0 7 1.9098441148405243 -1.5688297819784345 -1.556375772788868 -2.0643493679823006 -1.9992392681422075 1.7802130885052887 1.566996024726383 -1.705267514908648 1.6862519387557067 -1.731008497640466
0 8 1.2855226358323688 -0.9825849664948858 -1.0791846274133146 -1.2558839418811856 -1.1519822536535378 1.0750281472168537 1.0669375189754506 -1.1271461235084455 1.0560643313917981 -1.1760811352290144
0 9 -0.5173243238654218 0.060949690793346875 0.20650763562864086 0.09336328603825766 0.19862358501936048 -0.4187517512207867 -0.16288232219027898 0.1365986267923691 -0.2958627493575101 0.03202057942148625
0 10 -0.6152493562464428 0.4895635164595252 0.3725619520689819 0.5241862876972636 0.43865389635170754 -0.46462082922178216 -0.557097329153813 0.4850607328983858 -0.4661941429828315 0.42466536503013746
0 11 0.2224826530354104 -0.1181038006078192 -0.14622158995508328 -0.2627262005160897 -0.14154349416825376 0.12336366719956053 0.21382663627996334 -0.10107960099318232 0.15432310793880707 -0.2083738280838473
0 12 -0.47836899671259364 0.2270552887599446 0.2637034408694359 0.3218057450120112 0.25529001245426447 -0.3009843368183439 -0.3311923747649292 0.24051673959995112 -0.26290821288989774 0.3458099092012194
0 13 -0.2304855738638744 0.033832603445225096 0.17742372305981272 0.13672617230879697 0.19733823540753073 -0.19378421795275538 -0.12851142650113417 0.08024227268917652 -0.23475089616246184 0.14854254866447494
0 14 -0.6578022497175426 0.39471276544199885 0.3998947377088397 0.5216428612412622 0.4792966350546535 -0.5712486911252922 -0.49938890524777074 0.5316170354386957 -0.4502240296365132 0.4985673634767389
0 15 -0.07852911949157715 -0.074995256960392 -0.09589244425296783 -0.07055835425853729 0.029198134317994118 0.027098750695586205 -0.006297779269516468 0.06082821637392044 0.08930069208145142 -0.001097136759199202
0 16 -0.08457938581705093 -0.04382162168622017 0.05703554302453995 -0.03111276589334011 0.02012881636619568 -0.06055795028805733 -0.04525196552276611 -0.02446850575506687 -0.07846230268478394 -0.07561986148357391
0 17 0.05655782297253609 -0.018307125195860863 -0.03553611785173416 0.02147168479859829 -0.03542770817875862 0.041586797684431076 0.03949702903628349 0.057096999138593674 -0.08131085336208344 0.04147674888372421
0 18 -0.09895526617765427 0.009208261966705322 -0.01582053303718567 -0.03679053112864494 -0.0262620747089386 -7.06529594026506E-4 -0.0717935860157013 -0.055332332849502563 0.009293466806411743 0.04812061786651611
0 19 0.012340748682618141 0.09689539670944214 -0.04588628560304642 0.02743051014840603 0.09396567940711975 0.03913956880569458 -0.051342178136110306 -0.0659806877374649 0.05941236764192581 0.06968854367733002
0 20 0.4400887112883565 -0.4239968771367761 -0.3493968530958221 -0.450020299206994 -0.4163515978122394 0.44295089901755336 0.5159369486975413 -0.4340196711956406 0.4891563720645923 -0.39131068373658145
0 21 0.6310073349847303 -0.3821555715559357 -0.44652230312167274 -0.4854588690151284 -0.6028910643198926 0.48055898859371105 0.43039363547141385 -0.4915421209456205 0.4258631223327287 -0.5779444374664788
0 22 0.9907671764965481 -0.7981310805507956 -0.8594771176926406 -1.0969215426218146 -1.0314305739395682 0.9703270445175478 0.7764958531671808 -0.7948893237434089 0.9188205350954902 -0.8124207885077342
0 23 0.8870541925306762 -0.7690715435554398 -0.7157691933337145 -0.8836350647421342 -0.9283545961510284 0.7881676395782853 0.7051752831514145 -0.7271548057843633 0.694772965252938 -0.8282243538649255
0 24 0.6058003973932045 -0.4806071194982816 -0.43943639684544905 -0.6789600944002405 -0.5989365908693443 0.45234961692731596 0.5439188157700832 -0.4502765113451065 0.4284239861521202 -0.5272537416988685
0 25 0.9644058249359644 -0.7788742642612315 -0.7224060930629526 -0.9285531155171172 -0.89719981992631 0.7645611778298488 0.7143762026445653 -0.8934413480324911 0.8529328674775557 -0.8206628650394436
0 26 0.44972911084551803 -0.45431500149827025 -0.4607371967788808 -0.5742429128171306 -0.49497688486139624 0.3943774291901078 0.3602686180830756 -0.5371811462910825 0.43762444967335784 -0.47429181574444684
0 27 1.4420972154245415 -1.2622965669635624 -1.206136974450691 -1.521206375941391 -1.346761805636277 1.242274806018983 1.1237361321450867 -1.332155054262663 1.1584474830024103 -1.3059066966838286
0 28 0.7482977688007837 -0.625863269420414 -0.7228333138710492 -0.7941301852857174 -0.7867133011408072 0.8038814894108329 0.7218387804314991 -0.7185056344052129 0.723988034689038 -0.7301018629605328
0 29 1.0740318302342613 -0.9247429646682706 -0.8811338807354048 -1.1496112173987973 -1.023824706732286 1.0035929620025106 0.9147149806329306 -0.8899706530515424 0.8104130304360486 -0.9997166544793441
0 30 0.3049040949188258 -0.17134252504200936 -0.19904841517436403 -0.3274446998586013 -0.26072814581806375 0.3413092941189227 0.2744668294047503 -0.3191550866673029 0.3218742889462557 -0.25752744070742106
0 31 0.4986099164781746 -0.3175358198883082 -0.30764901675005485 -0.4318749763442378 -0.5540241175398125 0.49631299618059926 0.3131210131841154 -0.4999807528228387 0.4676843692690781 -0.3934401635824986
0 32 0.586506943496267 -0.49855190046113546 -0.4847979112973801 -0.5981807507664029 -0.5518031831580773 0.5673786636821271 0.47315267870919653 -0.544860701965098 0.5133441997260872 -0.5431835126577935
0 33 0.7358062788467409 -0.5703140680575088 -0.5441929499717965 -0.6723381966727321 -0.6827557783031452 0.7423848318046641 0.6982147214052069 -0.724399013750147 0.6885994373022633 -0.5584120989384501
0 34 0.3698394712075147 -0.3285213575949839 -0.3046330125907429 -0.2852019734151342 -0.2783391130709607 0.3019520730026884 0.311003451080958 -0.4119719290158643 0.33160062720682254 -0.39510754778178425
0 35 0.5345829019059785 -0.5232300614800447 -0.45742398940369366 -0.5913928163695706 -0.47170347019825637 0.3701630576704035 0.5004795871278608 -0.5424076074610182 0.32343351803478465 -0.40258329332367415
0 36 0.5533206377674121 -0.5486091573429662 -0.463202873853485 -0.5165562832995234 -0.596505747455333 0.5097854021981019 0.3906899873235449 -0.4189729902962815 0.5548134434588822 -0.555000770270857
0 37 0.9948330940705452 -0.7921419714884711 -0.837610050380132 -1.0440386613477064 -0.8885282514989044 0.8944864444936934 0.7498318719745343 -0.8385235551512513 0.7563752811316268 -0.9032634709043684
0 38 0.8203442330285197 -0.7546474122465732 -0.6425624788007598 -0.8290354245805415 -0.8284850293483075 0.8613853980331667 0.798091622814561 -0.8232735140141182 0.681137558847903 -0.8865132965627047
0 39 0.5484851971315863 -0.43422624565483403 -0.4964442646756667 -0.5756124798592414 -0.5416695377191961 0.6221356232082691 0.5777611670193757 -0.4838358336040519 0.5398319926214339 -0.5832044428020285
0 40 -0.15760798905472972 0.1427544348760294 0.17743580744997 0.08706140454264263 0.18578126587732272 -0.11737774098681562 -0.06155614110263284 0.008354823967188556 -0.19380159312986392 0.009835981238221683
0 41 0.15370302882134051 -0.0387291519795789 0.026521370991541064 -0.08669494908138663 0.00853367809172364 0.030172538194932576 0.08109070804827043 -0.04190245056303665 0.04991034539324052 -0.1157961656404741
0 42 -0.1272756554305314 0.12060093100912544 0.07197144737406916 0.197535889113402 0.16744305197881945 -0.2679479959370011 -0.09764348397481694 0.143071845310987 -0.2429249532965027 0.0577804999534369
0 43 0.02010573607735403 -0.012420114379566603 -0.1640695428820616 -0.1932990234876789 -0.16252077364606907 0.1564404888214216 0.15198136694659514 -0.024676978736739585 0.0721672770457107 -0.016940522338896695
0 44 -0.21906208985988457 0.06773024848415272 0.001652177139758387 0.06168096534278263 0.18099088867355329 -0.0999182075509204 -0.16266726340210103 0.07957091297363468 -0.11747157233529204 0.14350768139342762
0 45 0.4096514019851626 -0.3682686080414242 -0.35900253829382844 -0.5281410410840625 -0.40626168353515474 0.4067169749042902 0.3990906333606677 -0.4644307936280203 0.30173816307653095 -0.5001272176501795
0 46 0.7597338796549612 -0.6126069903701679 -0.6739389612727263 -0.7978408260694082 -0.7967869315897284 0.7625159312898908 0.604493105795016 -0.5869341463152099 0.6173026765807318 -0.6137729186006333
0 47 1.1833874113269178 -0.9837733214680789 -1.0459978420209914 -1.2319397194088522 -1.179293899728179 1.1373874684070697 1.0350581809830923 -1.0425233656128219 1.0427268882856402 -1.0488138924246433
0 48 0.9069776951457174 -0.9422068298454235 -0.7568565828098263 -0.9306292395267303 -0.9955386384455772 0.8381961081821299 0.8624891193735479 -0.8761294052639033 0.7708473849102564 -0.8002087347810316
0 49 0.6075652597477472 -0.5298060614455399 -0.5605309900401025 -0.6319382334778819 -0.6272051833471453 0.6353820302284998 0.4930063592717314 -0.5480360354409304 0.6049944844039319 -0.5695042043389196
0 50 0.5680890512255353 -0.5756410516020712 -0.5503866318854229 -0.7408054979123816 -0.6596758752608105 0.5633248252214623 0.4393353619903865 -0.6511205761729022 0.6170310796937273 -0.6375181353923579
0 51 0.6477091001314091 -0.4087087008260767 -0.39341385730066475 -0.6702335924546354 -0.556561534735931 0.5347141933485255 0.5404400180696334 -0.471153005644522 0.4932352665012778 -0.5388229977227438
0 52 1.332052901605796 -1.0900213463865813 -1.1191993576174506 -1.3866576315159358 -1.2052649204916015 1.1626712561674595 1.1396627165858533 -1.1804647667672898 1.1353851380951667 -1.06969382676579
0 53 0.8377593819749616 -0.6810012259980018 -0.6493750973888821 -0.8574834275098714 -0.8705100331435747 0.6685548435923293 0.7072249372137197 -0.689674167563699 0.6903740197546511 -0.6938396056871544
0 54 0.8334737666992559 -0.7226358953511196 -0.7479448979228271 -0.8773404892989782 -0.8227165946613288 0.8499008327393915 0.738979725824184 -0.6700862643690614 0.7496440091696923 -0.7664928891608045
0 55 0.2517653678669099 -0.17689318609103966 -0.13912026652318946 -0.20804815449491632 -0.3007737742543884 0.23408218404718253 0.2011452193041406 -0.21311965336083086 0.10318856727971099 -0.15298572311189165
0 56 0.4621545315349874 -0.36087396714587405 -0.5131722361276332 -0.6210890226817423 -0.4300962332797934 0.5761509522642173 0.4600495131963404 -0.5583565737700219 0.3971634421367259 -0.5432457796014065
0 57 0.6136436711034042 -0.4817382433844848 -0.415642631733433 -0.6083870937935527 -0.5768701885376701 0.5003396752943303 0.5840282600828289 -0.46365640926280316 0.43286398677215765 -0.45209884931988725
0 58 0.8164428852798096 -0.5908764480706481 -0.6395416668464572 -0.7942749244428507 -0.725438966541763 0.6700773425085259 0.6500706554861331 -0.8132352818660067 0.586082035147273 -0.7275804422520928
0 59 0.43708492118392356 -0.40126596429746636 -0.2626099965484841 -0.5388556949157628 -0.4578962069440225 0.332634823369699 0.27015008358823334 -0.32347063638507956 0.39205025498743007 -0.3239112695938768
0 60 0.4149551037594404 -0.4612598805837894 -0.3009821919711409 -0.5548093909098997 -0.5318129425381406 0.39517745293686934 0.27026844372919634 -0.49222339839005136 0.3329222429986524 -0.4758241834689198
0 61 0.6949589410805247 -0.5608808731911391 -0.6897128562772189 -0.7864014502374481 -0.8165338299016558 0.646133183673582 0.6933224780894737 -0.7550467512020713 0.6788014581061463 -0.6653551386298144
0 62 1.1899383594540425 -1.0166636192247673 -1.0251881793140125 -1.1697046019663888 -1.1679044680333608 1.1660021450549514 1.0130876780953422 -1.1338974166690994 1.058134802372534 -1.0959984995572436
0 63 0.9810018287718826 -0.9356298237320126 -0.729788589978711 -0.93437978345754 -1.0298103823310925 0.9972061502394247 0.9188882953917034 -0.9478153216690925 0.9174226633450123 -0.8612273675502438
0 64 0.6950763146173234 -0.6055663499607143 -0.5409636012192641 -0.640186812817135 -0.6932984561879327 0.5666999419245242 0.5429849927264295 -0.5398160630703502 0.5742295991754833 -0.6130955909966955
0 65 -0.16822617291277256 0.1544188631110798 0.052248356629644756 0.17398533585948284 0.16088073195658978 -0.10045032234868415 -0.004460780085067449 -0.022514555904503103 -0.1395920429114986 0.05638456177819753
0 66 0.16629629270961355 0.020793582743882034 0.005164927682739674 -0.08186665693295604 -0.1823859117013647 0.03420645083453819 0.09790307491339353 -0.07952651994911442 0.13192450888177662 -0.025241630834742932
0 67 -0.2056817634462872 0.12998019743187203 0.14170595142358225 0.08550540190216571 0.0961037691989374 -0.20333253788485015 -0.030907809013965438 0.049381652447464515 -0.13125481214310544 0.15055681242731755
0 68 0.11818995163277692 -0.05165064302213523 -0.07074520281904396 -0.09185031966162403 -0.06065008870199152 0.03926347669354392 0.030324287177820264 -0.10813597071117076 0.0018523843390785663 -0.049992493322482005
0 69 -0.12921192599652137 0.05605061087922938 0.012900945796465566 0.14351316696496536 -0.022783951456905233 -0.15765418317798913 -0.05246190860757242 -0.03540964087277981 0.01788914681506524 0.04280431877232089
0 70 0.47103833314271215 -0.391734855279644 -0.44209814914006146 -0.6097745719623219 -0.5080568329701922 0.478130598706272 0.39932783355745805 -0.4604549288432393 0.35939387509926685 -0.42283305887401246
0 71 0.6192949835384283 -0.39318073301442713 -0.5458908830296345 -0.4686784936863245 -0.45769808440452003 0.5278389887516484 0.4459440566259402 -0.5177120360423424 0.45628644603834856 -0.524918819234524
0 72 0.9562624748050048 -0.8582324818367579 -0.7564082173196125 -1.0341070918511066 -1.0372607638514193 0.9080818998006117 0.7876378827201873 -0.9346988525650167 0.7883125215066566 -0.9246104859640788
0 73 0.9684402934775901 -0.6849502560371443 -0.8118438769845193 -0.9510486747323181 -0.95013042172252 0.8660367758445565 0.6830093388838319 -0.7548878552962275 0.6687229956259648 -0.738413083670356
0 74 0.6457099246624504 -0.5603141906224357 -0.4189895210717842 -0.5822232174195762 -0.6238952496316845 0.4733414660641399 0.5539957421675795 -0.46782952503494063 0.6027828311072229 -0.6035144609461073
0 75 0.7489369885418119 -0.7470045493174196 -0.742458534447183 -0.7626194755712334 -0.8752258337236419 0.7169231558614569 0.729871267706173 -0.6633931914027126 0.7363305758805437 -0.6357536869174427
0 76 0.42191938504063653 -0.3616605458828203 -0.3985088220113936 -0.5369670355212339 -0.507179644650613 0.47972755283747875 0.3902084807675108 -0.5259044908607918 0.45368187304520746 -0.38598691942457347
0 77 1.4147649850884156 -1.1452393408649395 -1.134879722102744 -1.2558270526650075 -1.3483451834909894 1.2979236105952296 1.1660205409639595 -1.134118298888215 1.148234147897906 -1.2288336590262618
0 78 0.6918016784910133 -0.6433317537998453 -0.6938112846642851 -0.6998017481721621 -0.736590669863722 0.7485652291900324 0.5374476855834825 -0.7558783792297696 0.729614517152477 -0.7582858391215014
0 79 0.8288411367585341 -0.7865027819265477 -0.6818848731395544 -0.9298592996617594 -0.7989811921311738 0.8078282489529148 0.7054454233937616 -0.8089036085353573 0.7700900403278967 -0.7500426458828215
0 80 0.36807775181288294 -0.3216838966438187 -0.4230799434205869 -0.402709212486643 -0.435545620145367 0.2509538615444819 0.28319813432744567 -0.32661931807829325 0.2563294065678547 -0.3611182641245177
0 81 0.5189500684224861 -0.40212385125308514 -0.34812902977119903 -0.4503371123375033 -0.4279390715004547 0.5356931220455867 0.46017965627273233 -0.5102913254056081 0.34652080003808916 -0.45440638969443137
0 82 0.6409404440450602 -0.524135250850666 -0.40504053404610824 -0.5883482362965303 -0.5743636282152222 0.5951024723871646 0.5159445560260393 -0.4923397658739705 0.46634550200589864 -0.5735172411060867
0 83 0.7518998514184809 -0.6743456553399406 -0.5767912311702368 -0.8915376674176763 -0.8330631234788042 0.6698609565708517 0.5695730454041442 -0.7017294961501075 0.7613771878848036 -0.6952370903204697
0 84 0.4921608843461524 -0.3882513506647536 -0.31022749275426925 -0.44101065992896504 -0.49615231023902534 0.36468349971143177 0.4073209841394934 -0.33342771717470443 0.2794124885003478 -0.44060248614307707
0 85 0.5521036036074192 -0.5511273536175185 -0.5263259238815474 -0.5496853006710154 -0.44682332735274677 0.5523555713563123 0.36860391937081005 -0.5532907016828915 0.5350719941430055 -0.5705821627998425
0 86 0.5679989774771053 -0.4136898598013612 -0.3826411734487076 -0.6021054796677546 -0.5725773900143725 0.5652363317048066 0.5009346992877323 -0.5846245858281867 0.4874635013839422 -0.43990453132866175
0 87 0.938123494017316 -0.8532235465806226 -0.7588632703251513 -1.0700876569107298 -0.9529638066965168 0.9148257828414885 0.809165493413488 -0.9444982184334034 0.7337033689582757 -0.8803652645031967
0 88 0.8313858073732214 -0.7440601393991706 -0.7377893680567161 -0.8395300082801085 -0.9670869331040362 0.8691946406451136 0.7041737416216826 -0.8286507637814263 0.7178972781431814 -0.8953006674234488
0 89 0.6618063117019994 -0.6193425036092909 -0.5770141227029605 -0.7242869178223563 -0.6756080965835907 0.5446154951600906 0.554007078855615 -0.6102883220901851 0.45053087266827585 -0.558438366160222
0 90 -0.08740386168665354 0.04338049936695641 0.05545940874828039 0.012678441707337937 -0.04749046970998933 -0.09172141954206814 0.018935580435630216 0.03815033721257413 0.003345400619650479 0.09007796846275876
0 91 0.08633472007797324 -0.03488005242255961 -0.036414580637011466 -0.019464620494304072 -0.0073315844037430845 0.127869737250123 -0.01758293720088465 -0.16833146259063772 -0.016572693223906726 -0.128703949826806
0 92 -0.06048928029834656 0.026651997292882642 0.036799050267861906 0.07816077744733148 0.012977085810881401 -0.16512285286453485 -0.16217480072600873 0.11931450169242891 -0.08395995039421125 0.01578405757529841
0 93 0.19603871002793927 -0.12357694939414324 -0.19962071776333218 -0.2642858232124247 -0.15969754391828 0.09751406949304853 0.1294865345424808 -0.08869947960535339 0.20667102949512656 -0.2382206026811485
0 94 -0.001361080183317247 -0.05091354675890309 -0.021512476056543366 -0.06433646420088139 -0.010377033627580936 -0.0493931848578592 -0.010858167112357011 -0.04899072465035646 -0.09607718438297037 -0.02187493578224843
0 95 -0.08725695313594176 -0.2337926006432833 -0.18709697285052176 -0.17014942074818196 -0.21199055893360383 -0.03509013668880196 0.05386518522513912 -0.33141547561199036 0.013945137467165566 -0.3327884299761066
0 96 0.8552254260502198 -0.7080716729267402 -0.7537012540215591 -0.9603437237797449 -0.8019423099230103 0.8070847267864496 0.6540333276488425 -0.7164250335907547 0.8303048699856084 -0.7761014666892941
0 97 2.458360309668993 -2.0448117626759026 -1.9854834787818019 -2.4432436219232883 -2.341522247229108 2.199763139009079 1.952047819566721 -2.1201004152619403 2.0409021312466518 -2.165343440554681
0 98 1.0207924190662356 -0.8002742281157459 -0.8087371094573593 -0.9391562826093667 -0.9685626946752607 0.8441804497303754 0.8439958724287069 -0.8415393528140027 0.8106408665959639 -0.802093414294041
0 99 -0.1596797514258744 -0.16747110995048703 -0.13282297345140104 -0.2283645757234881 -0.1278465500834592 0.07593009259039302 0.1930522751136043 -0.284366996616607 0.11711451151079987 -0.22128859917892715
0 100 -0.43910366044971966 -0.012632822042883846 -0.09103292693786645 -0.06095681028578763 0.05176359644509741 -0.21949397528393086 -0.07243577458161378 0.07371201759258186 -0.2815736782964008 0.018844242221641456
0 101 1.0503783933807107 -0.8319591738455915 -0.8447497957716805 -1.1639711404436477 -0.9545114746892454 0.8914094893603934 0.913870251726604 -0.9035188866373144 0.7982185012358866 -0.893689172490576
0 102 1.6411004926785449 -1.2533201235584643 -1.346427968262178 -1.7316505990599693 -1.6404931964409555 1.4596996410603649 1.3186593690887514 -1.5458825138770702 1.327854117840979 -1.3924161808934452
0 103 1.3344129826834832 -1.0716650227331324 -0.9712737188853128 -1.2545399456898954 -1.2115527996629338 1.248553218787782 1.0787832204931616 -1.0762642106882143 1.0186914324155347 -1.1398502392343062
0 104 -0.39041828521165645 -0.09597572854861484 -0.03969000453386055 -0.12727856732420945 -0.04444286077456617 -0.09931477800609391 -0.011446008188480235 -0.013377879630400184 -0.2331199106785499 -0.14090151601316683
0 105 0.6026993787109791 -0.8354227470250993 -0.6690572457492792 -0.9512318185965006 -0.812896561966094 0.7439716550951347 0.8049204470602909 -0.7926808887004335 0.6845987670632028 -0.7802753933791613
0 106 0.8325945829340682 -0.8394911546675469 -0.7038393597257989 -1.0121248101206717 -0.9260629387674286 0.737332035395188 0.7604409749485367 -0.7341342539519072 0.7591780749731559 -0.851345595666315
0 107 1.794493819554061 -1.550482753618304 -1.4961356644420765 -1.8641677257622438 -1.6417438202684904 1.6532078752243247 1.4616050061771588 -1.5265842894449047 1.474911301135755 -1.5108489869981045
0 108 1.2033024382680872 -0.8916048876988155 -0.9275058716592782 -1.1467615026528772 -1.2072570540388778 1.0364291742190308 1.0304686334156414 -1.1243800245742805 0.8996186780713101 -0.9701027053113551
0 109 0.6217114649901104 -0.7594006225239843 -0.7891403180258161 -1.0779071501280488 -0.9290547369224124 0.7641090302738122 0.8062584073064576 -0.8210990249493629 0.7914990152194769 -0.9122193528693398
0 110 0.6535064273122423 -0.661336270699028 -0.5941038091518153 -0.6642196425898914 -0.7927857275807842 0.5314134731639703 0.6018539392306417 -0.6416723453859547 0.6235126568889124 -0.6998583918338165
0 111 0.5955446533307654 -0.4827770368008411 -0.594655142949435 -0.7373390679150096 -0.7350293695127738 0.6176343307903408 0.6595826635417135 -0.62994755623472 0.5161626691228326 -0.5454983725054499
0 112 1.6086157033400301 -1.2974766692980646 -1.192246833961486 -1.4710811583204544 -1.6185618947114022 1.501440442718189 1.2041985278549028 -1.4317850345650045 1.3431687906647047 -1.4290209973304977
0 113 0.787653206997703 -0.5190288636170707 -0.6610273081267716 -0.687491169982972 -0.7409451952634191 0.5890729346972751 0.4974179958055689 -0.6611365805160784 0.537956300740528 -0.565987859431808
0 114 0.6705146115910979 -0.707490199002951 -0.5661015722740358 -0.8128705548253349 -0.8451065543116985 0.613442977074321 0.6141736982660415 -0.7274074830726543 0.6364277264720575 -0.7760204437394248
0 115 0.5706897261615914 -0.5459047393412255 -0.46226304465418006 -0.4850514054954501 -0.6380493927849213 0.4633370281135642 0.5222122548454404 -0.5925832985458162 0.4880115467810121 -0.5952550005511335
0 116 0.2317528711918659 -0.09915077756433918 -0.1920970939027323 -0.17295598066584736 -0.11450470976511996 0.1910237948476618 0.20017359788114134 -0.07107149891944392 0.09441755824429973 -0.11287372849338748
0 117 0.4579501789302498 -0.29556314688729574 -0.3510983418399133 -0.3593740312895871 -0.3217746834350298 0.35703342717952125 0.23548010526692237 -0.28952421410377394 0.2313591465798702 -0.2605836802214729
0 118 0.32378532493444084 -0.2405781863387778 -0.08650339168991267 -0.16068677927405933 -0.28230153062681634 0.23737675017546334 0.13171553940042346 -0.2569566594324957 0.15768838461536017 -0.14449796726372455
0 119 0.5404451497330856 -0.5003169428735845 -0.5647804535492194 -0.7001561080136636 -0.6663177003631212 0.545353747000996 0.49694586292796306 -0.5039542896144388 0.5075063542848819 -0.5868986509741199
0 120 0.40679061121700966 -0.492058587343183 -0.512583521075302 -0.674617142547052 -0.5686162315936026 0.4926775578485057 0.4288828995238778 -0.4770117730289683 0.3803784839450553 -0.5304829471931379
0 121 0.8115232825428533 -0.75523350113869 -0.6251900136975171 -0.837336465544029 -0.7987615364400309 0.7994306873314884 0.5418499917731394 -0.6541086784367476 0.6819756487150054 -0.7380409820143696
0 122 1.8598043997481415 -1.5674579439578857 -1.5273239676930426 -1.8851178435177218 -1.9012089944868311 1.7630793497120434 1.6079428514569476 -1.7501380175578125 1.686990340154831 -1.5987073026769445
0 123 0.9412044165786501 -0.7181660572437091 -0.6897984566788846 -0.9762778031080072 -0.7763229710600382 0.7363393579088136 0.7600227936255889 -0.8468244395052316 0.68550649741712 -0.8268635082363263
0 124 0.5490406305786439 -0.6708038559951351 -0.5566329075893766 -0.7634508000697464 -0.7609075897741671 0.6795299034162531 0.6447577887514079 -0.6529540202134504 0.589631537607574 -0.6406654065174322
0 125 -0.20623940063795473 0.2316092121589292 0.09995703646723325 0.19097739513965925 0.14362172826388045 -0.14584219094268389 -0.13498469436314353 0.21835061792397542 -0.27728623325220125 0.09132607597794819
0 126 -0.235210745454192 0.1556607990245841 0.03646616005469394 0.20498001175968208 0.12314642170696447 -0.1512473474843769 -0.15788254929718062 0.1777301628870951 -0.19238615562997985 0.1824676287451398
0 127 0.08523932996703901 -0.07757153836370587 -0.06257546764089376 -0.16036258594693673 0.0074592293932635835 0.021631144210685134 0.08180207058167421 0.016852633131818843 0.06415860166678303 -0.07647152076148334
0 128 0.6559179379734863 -0.6366402649478361 -0.6506457719526119 -0.6747395936123017 -0.6367949658649436 0.6135878655265387 0.6277992630236949 -0.5630155771726454 0.6146294376920951 -0.6376978880222072
0 129 0.39734259035121455 -0.5378416319257364 -0.4757555571004623 -0.5722036479375926 -0.6134077606645365 0.4532577073467006 0.38238087408481974 -0.5076300963203338 0.506417905661884 -0.4731878262428966
0 130 0.344995829726175 -0.4758062726990497 -0.5621520497549156 -0.4642023703696485 -0.5728218146152554 0.3547122487302024 0.2988592124642554 -0.4915208080794013 0.40461255525535045 -0.4730456740412085
0 131 0.03650389008225483 0.05100329658394738 -0.107933411512177 -0.07546691952983665 0.018921005734964105 0.0049125923734903475 0.07509789072934941 -0.08201466728984266 0.04528549835048168 0.06061262504528154
0 132 -0.5131879941399381 0.44581569411119293 0.4837217526225001 0.5732553620152867 0.43490553442514907 -0.4840334698322644 -0.37349480772902394 0.3884535857705271 -0.4431015815697908 0.4842888324379085
0 133 0.9198242823546614 -0.8233941908285433 -0.6939848669245138 -1.0107584824520168 -0.8021327796379197 0.9276508653063391 0.6816603107234231 -0.7181737784223102 0.7479065277533281 -0.7389058950857589
0 134 0.030044812523749822 -0.16218598089595596 -0.015206840108618795 -0.20610735501628788 -0.044858722807341087 0.12714225872838084 0.07127788894546674 -0.16595781158179615 0.12477827014556027 -0.1910760403100054
0 135 0.1775318122452341 -0.05660915995483697 -0.17673543784997786 -0.1756758929170908 -0.141581171105401 0.16951801767082528 0.04928984289737158 -0.06436124924669155 0.15434613966874358 -0.14116622025851064
0 136 -0.38843906724365607 -0.0035710328914399575 0.09184522748609497 0.1255431472127657 0.13262150796907812 -0.2028853887764389 -0.2705993489074655 -0.021822569404796734 -0.19136190224222224 -0.0010144788180969533 -0.41784219153388197
1 0 3.268785870126063
1 1 -1.3361309978261222
1 2 -1.663276944521533
1 3 -1.363813228483318
1 4 -1.4808188548032624
1 5 2.081443773534493
1 6 1.459172584229482
1 7 -1.3176996048234098
1 8 1.9704678069845727
1 9 -1.1011768440448049
